{
  "type": "mysql",
  "host": "127.0.0.1",
  "port": 3306,
  "username": "root",
  "password": "pass",
  "database": "forumdb",
  "entities": ["src/database/entities/**/*.ts"],
  "migrations": ["src/database/migration/**/*.ts"],
  "cli": {
    "entitiesDir": "src/database/entities",
    "migrationsDir": "src/database/migration"
  }
}